…
Immediately we see that certain weather events--astronomical high and low tide, dense smoke, seiche, tropical depression, volcanic eruption, and wall cloud--have never caused human injury or death that were recorded in NOAA's database. We will remove these cases in order to build more interesting plots.


```r
popData %>% filter((avgFat+avgInj+totFat+totInj) > 0)
```

```
## # A tibble: 27 x 5
##    event              avgFat avgInj totFat totInj
##    <chr>               <dbl>  <dbl>  <dbl>  <dbl>
##  1 avalanche         0.580   0.441     225    171
##  2 blizzard          0.0368  0.293     101    805
##  3 coastal storm     0.364   0.182       4      2
##  4 cold              0.111   0.127     477    543
##  5 drought           0.00322 0.0168      9     47
##  6 dust devil        0.0132  0.285       2     43
##  7 dust storm        0.0505  1.01       22    440
##  8 erosion/landslide 0.0673  0.0841     44     55
##  9 flood             0.0181  0.101    1558   8683
## 10 fog               0.0430  0.572      81   1077
## # ... with 17 more rows
```
…
